VirtualBox GUI VM Selector Window 4.3.18_Ubuntu r96516 linux.amd64 (Oct 21 2014 20:05:32) release log
00:00:01.849423 Log opened 2015-01-03T11:14:13.660263000Z
00:00:01.849426 Build Type: release
00:00:01.849429 OS Product: Linux
00:00:01.849431 OS Release: 3.16.0-28-generic
00:00:01.849432 OS Version: #38-Ubuntu SMP Fri Dec 12 17:37:40 UTC 2014
00:00:01.849465 DMI Product Name: Vostro 1450
00:00:01.849477 DMI Product Version: Not Specified
00:00:01.849597 Host RAM: 3860MB total, 2458MB available
00:00:01.849600 Executable: /usr/lib/virtualbox/VirtualBox
00:00:01.849601 Process ID: 13777
00:00:01.849603 Package type: LINUX_64BITS_GENERIC (OSE)
00:00:01.853639 UIMediumEnumerator: Medium-enumeration started...
00:00:02.168711 UIMediumEnumerator: Medium-enumeration finished!
