VirtualBox XPCOM Server 4.3.18_Ubuntu r96516 linux.amd64 (Oct 21 2014 20:05:32) release log
00:00:00.000192 main     Log opened 2015-01-03T11:14:13.186998000Z
00:00:00.000194 main     Build Type: release
00:00:00.000198 main     OS Product: Linux
00:00:00.000199 main     OS Release: 3.16.0-28-generic
00:00:00.000201 main     OS Version: #38-Ubuntu SMP Fri Dec 12 17:37:40 UTC 2014
00:00:00.000230 main     DMI Product Name: Vostro 1450
00:00:00.000240 main     DMI Product Version: Not Specified
00:00:00.000330 main     Host RAM: 3860MB total, 2463MB available
00:00:00.000335 main     Executable: /usr/lib/virtualbox/VBoxSVC
00:00:00.000336 main     Process ID: 13802
00:00:00.000337 main     Package type: LINUX_64BITS_GENERIC (OSE)
00:00:00.116623 nspr-2   NetIfAdpCtlOut: VBoxNetAdpCtl: Error while retrieving link status for wlan0: VBoxNetAdpCtl: ioctl failed: Operation not supported
00:00:00.117587 nspr-2   HostDnsMonitorProxy: Host's DNS information updated:
00:00:00.117605 nspr-2   DNS server 1: 127.0.1.1
00:00:00.117659 nspr-2   Failed to open "/dev/vboxdrvu", errno=13, rc=VERR_VM_DRIVER_NOT_ACCESSIBLE
00:00:00.118618 nspr-2   VDInit finished
00:00:00.118784 nspr-2   ERROR [COM]: aRC=NS_ERROR_FAILURE (0x80004005) aIID={1254a96a-ae57-4484-946a-22d86c1f98af} aComponent={SystemProperties} aText={Cannot determine default Guest Additions ISO location. Most likely they are not available}, preserve=false
00:00:07.947467 Watcher  ERROR [COM]: aRC=E_ACCESSDENIED (0x80070005) aIID={fafa4e17-1ee2-4905-a10e-fe7c18bf5554} aComponent={VirtualBox} aText={The object is not ready}, preserve=false
